{
  "project_info": {
    "project_number": "30548362248",
    "project_id": "app-taskson-flutter",
    "storage_bucket": "app-taskson-flutter.appspot.com"
  },
  "client": [
    {
      "client_info": {
        "mobilesdk_app_id": "1:30548362248:android:a2d3e84f002c316ee5fdbd",
        "android_client_info": {
          "package_name": "facci.andersonplua.app_taskson"
        }
      },
      "oauth_client": [
        {
          "client_id": "30548362248-bqi3jtf5bcbirb58n7iki9neuj72a9si.apps.googleusercontent.com",
          "client_type": 3
        }
      ],
      "api_key": [
        {
          "current_key": "AIzaSyAmbKenoNJWSyS30GcaAy-srmAh_alr4-o"
        }
      ],
      "services": {
        "appinvite_service": {
          "other_platform_oauth_client": [
            {
              "client_id": "30548362248-bqi3jtf5bcbirb58n7iki9neuj72a9si.apps.googleusercontent.com",
              "client_type": 3
            }
          ]
        }
      }
    }
  ],
  "configuration_version": "1"
}